{
  "project_info": {
    "project_number": "677923493136",
    "firebase_url": "https://amvirgin-5966b.firebaseio.com",
    "project_id": "amvirgin-5966b",
    "storage_bucket": "amvirgin-5966b.appspot.com"
  },
  "client": [
    {
      "client_info": {
        "mobilesdk_app_id": "1:677923493136:android:b7bd658a94f12292218195",
        "android_client_info": {
          "package_name": "com.example.amvirgin"
        }
      },
      "oauth_client": [
        {
          "client_id": "677923493136-6skjcbtj703eagthj5au6ro0f0on6tc2.apps.googleusercontent.com",
          "client_type": 1,
          "android_info": {
            "package_name": "com.example.amvirgin",
            "certificate_hash": "c7dcf22da54c8cc9899783fa0da4190b7b93a38e"
          }
        },
        {
          "client_id": "677923493136-oh7fdc0qiu2tj8ndmc3prmqn19j2e3pk.apps.googleusercontent.com",
          "client_type": 3
        }
      ],
      "api_key": [
        {
          "current_key": "AIzaSyBVby0wwCFb_2eZQ1DL7teLlA5KaU7BZZY"
        }
      ],
      "services": {
        "appinvite_service": {
          "other_platform_oauth_client": [
            {
              "client_id": "677923493136-oh7fdc0qiu2tj8ndmc3prmqn19j2e3pk.apps.googleusercontent.com",
              "client_type": 3
            }
          ]
        }
      }
    }
  ],
  "configuration_version": "1"
}